Midterm: Take-home
…
(5 points) Use the function above to download all the data from 2014-15 to each of the past 4 school years and bind it into a single data frame, using a single function (i.e., one line of code). Note, this may take a minute or two to run, depending on your Internet speed.

Conduct some basic data cleaning to make your data file look like the following.

Filter for only student groups coded as "White" or "Hispanic/Latino".

Select variables related to the number of students in each of the levels (1:4), and not percentages or collapsed levels.

Remove any row that has missing data in any of the n variables

## # A tibble: 90,576 x 7
##    academic_year district   school         student_group grade_level level     n
##    <chr>         <chr>      <chr>          <chr>         <chr>       <chr> <int>
##  1 2014-2015     Adrian SD… Adrian Elemen… Hispanic/Lat… Grade 3     1         2
##  2 2014-2015     Adrian SD… Adrian Elemen… Hispanic/Lat… Grade 3     2         1
##  3 2014-2015     Adrian SD… Adrian Elemen… Hispanic/Lat… Grade 3     3         2
##  4 2014-2015     Adrian SD… Adrian Elemen… Hispanic/Lat… Grade 3     4         1
##  5 2014-2015     Adrian SD… Adrian Elemen… Hispanic/Lat… Grade 6     1         2
##  6 2014-2015     Adrian SD… Adrian Elemen… Hispanic/Lat… Grade 6     2         3
##  7 2014-2015     Adrian SD… Adrian Elemen… Hispanic/Lat… Grade 6     3         2
##  8 2014-2015     Adrian SD… Adrian Elemen… Hispanic/Lat… Grade 6     4         0
##  9 2014-2015     Adrian SD… Adrian Elemen… Hispanic/Lat… Grade 7     1         2
## 10 2014-2015     Adrian SD… Adrian Elemen… Hispanic/Lat… Grade 7     2         2
## # … with 90,566 more rows

(5 points) Collapse (sum) the n across grades and school for each district within each academic year, student group, and level. At the same time, calulate the number of schools (unique schools listed) for each district. Also move your data to a wider format where the student groups become new columns, filled by the district n. Remove districts that did not report numbers for one or both student groups (i.e., drop missing data from the new columns). Your data frame should look like the below

## # A tibble: 1,948 x 6
##    academic_year district     n_schools level hispanic_latino white
##    <chr>         <chr>            <int> <chr>           <int> <int>
##  1 2014-2015     Adrian SD 61         2 1                   6     8
##  2 2014-2015     Adrian SD 61         2 2                   6    17
##  3 2014-2015     Adrian SD 61         2 3                   6    23
##  4 2014-2015     Adrian SD 61         2 4                   1    22
##  5 2014-2015     Amity SD 4J          3 1                  19    75
##  6 2014-2015     Amity SD 4J          3 2                  26    86
##  7 2014-2015     Amity SD 4J          3 3                  14   101
##  8 2014-2015     Amity SD 4J          3 4                   3    31
##  9 2014-2015     Ashland SD 5         6 1                  18    76
## 10 2014-2015     Ashland SD 5         6 2                  24   141
## # … with 1,938 more rows
…
