Parellel Iterations
…
---
# More powerful
### Add it as a list column!

```r
sim2 <- conditions %>%
	as_tibble() %>% # Not required, but definitely helpful
	mutate(sim = map2(n, mu, ~rnorm(n = .x, mean = .y, sd = 10))) 
sim2
```

```
## # A tibble: 510 x 3
##        n    mu sim       
##    <dbl> <dbl> <list>    
##  1     5    -2 <dbl [5]> 
##  2    10    -2 <dbl [10]>
##  3    15    -2 <dbl [15]>
##  4    20    -2 <dbl [20]>
##  5    25    -2 <dbl [25]>
##  6    30    -2 <dbl [30]>
##  7    35    -2 <dbl [35]>
##  8    40    -2 <dbl [40]>
##  9    45    -2 <dbl [45]>
## 10    50    -2 <dbl [50]>
## # … with 500 more rows
```

---
# Unnest

```r
conditions %>%
	as_tibble() %>% # Not required, but definitely helpful
	mutate(sim = map2(n, mu, ~rnorm(.x, .y, sd = 10))) %>%
	unnest()
```

```
## # A tibble: 39,525 x 3
##        n    mu         sim
##    <dbl> <dbl>       <dbl>
##  1     5    -2  -5.718192 
##  2     5    -2  18.72070  
##  3     5    -2 -11.49876  
##  4     5    -2 -27.22668  
##  5     5    -2   0.6224170
##  6    10    -2  -1.099634 
##  7    10    -2 -12.89692  
##  8    10    -2   8.472918 
##  9    10    -2  -2.644447 
## 10    10    -2 -21.10733  
## # … with 39,515 more rows
```
…
--
### `pmap`
Which we'll get to soon

---
# Varying the title of a plot
### The data

```r
library(fivethirtyeight)
pulitzer
```

```
## # A tibble: 50 x 7
##    newspaper circ2004 circ2013 pctchg_circ num_finals1990_2003
##    <chr>        <dbl>    <dbl>       <int>               <int>
##  1 USA Today  2192098  1674306         -24                   1
##  2 Wall Str…  2101017  2378827          13                  30
##  3 New York…  1119027  1865318          67                  55
##  4 Los Ange…   983727   653868         -34                  44
##  5 Washingt…   760034   474767         -38                  52
##  6 New York…   712671   516165         -28                   4
##  7 New York…   642844   500521         -22                   0
##  8 Chicago …   603315   414930         -31                  23
##  9 San Jose…   558874   583998           4                   4
## 10 Newsday     553117   377744         -32                  12
## # … with 40 more rows, and 2 more variables: num_finals2004_2014 <int>,
## #   num_finals1990_2014 <int>
```
…
---
# Nest data

```r
pulitzer %>%
	group_by(newspaper) %>%
	nest()
```

```
## # A tibble: 50 x 2
## # Groups:   newspaper [50]
##    newspaper             data            
##    <chr>                 <list>          
##  1 USA Today             <tibble [2 × 2]>
##  2 Wall Street Journal   <tibble [2 × 2]>
##  3 New York Times        <tibble [2 × 2]>
##  4 Los Angeles Times     <tibble [2 × 2]>
##  5 Washington Post       <tibble [2 × 2]>
##  6 New York Daily News   <tibble [2 × 2]>
##  7 New York Post         <tibble [2 × 2]>
##  8 Chicago Tribune       <tibble [2 × 2]>
##  9 San Jose Mercury News <tibble [2 × 2]>
## 10 Newsday               <tibble [2 × 2]>
## # … with 40 more rows
```
…
---

```r
p
```

```
## # A tibble: 50 x 3
## # Groups:   newspaper [50]
##    newspaper             data             plot  
##    <chr>                 <list>           <list>
##  1 USA Today             <tibble [2 × 2]> <gg>  
##  2 Wall Street Journal   <tibble [2 × 2]> <gg>  
##  3 New York Times        <tibble [2 × 2]> <gg>  
##  4 Los Angeles Times     <tibble [2 × 2]> <gg>  
##  5 Washington Post       <tibble [2 × 2]> <gg>  
##  6 New York Daily News   <tibble [2 × 2]> <gg>  
##  7 New York Post         <tibble [2 × 2]> <gg>  
##  8 Chicago Tribune       <tibble [2 × 2]> <gg>  
##  9 San Jose Mercury News <tibble [2 × 2]> <gg>  
## 10 Newsday               <tibble [2 × 2]> <gg>  
## # … with 40 more rows
```
…
```r
full_conditions %>%
	as_tibble() %>%
	mutate(sim = pmap(list(n, mu, sd), ~rnorm(..1, ..2, ..3)))
```

```
## # A tibble: 10,710 x 4
##        n    mu    sd sim       
##    <dbl> <dbl> <dbl> <list>    
##  1     5    -2     1 <dbl [5]> 
##  2    10    -2     1 <dbl [10]>
##  3    15    -2     1 <dbl [15]>
##  4    20    -2     1 <dbl [20]>
##  5    25    -2     1 <dbl [25]>
##  6    30    -2     1 <dbl [30]>
##  7    35    -2     1 <dbl [35]>
##  8    40    -2     1 <dbl [40]>
##  9    45    -2     1 <dbl [45]>
## 10    50    -2     1 <dbl [50]>
## # … with 10,700 more rows
```
---
# Unnest

```r
full_conditions %>%
	as_tibble() %>%
	mutate(sim = pmap(list(n, mu, sd), ~rnorm(..1, ..2, ..3))) %>%
	unnest()
```

```
## # A tibble: 830,025 x 4
##        n    mu    sd        sim
##    <dbl> <dbl> <dbl>      <dbl>
##  1     5    -2     1 -3.058661 
##  2     5    -2     1 -2.142905 
##  3     5    -2     1 -2.239534 
##  4     5    -2     1 -0.9341582
##  5     5    -2     1 -2.048730 
##  6    10    -2     1 -0.9363105
##  7    10    -2     1 -3.319067 
##  8    10    -2     1 -3.732857 
##  9    10    -2     1 -2.452757 
## 10    10    -2     1 -2.062079 
## # … with 830,015 more rows
```
…
---
# Add column for total

```r
pulitzer <- pulitzer %>%
	group_by(newspaper) %>%
	mutate(tot = sum(n))
pulitzer
```

```
## # A tibble: 100 x 4
## # Groups:   newspaper [50]
##    newspaper           year_range     n   tot
##    <chr>               <chr>      <int> <int>
##  1 USA Today           1990-2003      1     2
##  2 USA Today           2004-2014      1     2
##  3 Wall Street Journal 1990-2003     30    50
##  4 Wall Street Journal 2004-2014     20    50
##  5 New York Times      1990-2003     55   117
##  6 New York Times      2004-2014     62   117
##  7 Los Angeles Times   1990-2003     44    85
##  8 Los Angeles Times   2004-2014     41    85
##  9 Washington Post     1990-2003     52   100
## 10 Washington Post     2004-2014     48   100
## # … with 90 more rows
```
---
# Easiest way (imo)
Create a column to represent exactly the label you want.

```r
#install.packages("english")
library(english)
pulitzer <- pulitzer %>%
	mutate(label = 
    glue("{str_to_title(as.english(tot))} Total Pulitzer Awards"))
pulitzer
```

```
## # A tibble: 100 x 5
## # Groups:   newspaper [50]
##    newspaper          year_range     n   tot label                              
##    <chr>              <chr>      <int> <int> <chr>                              
##  1 USA Today          1990-2003      1     2 Two Total Pulitzer Awards          
##  2 USA Today          2004-2014      1     2 Two Total Pulitzer Awards          
##  3 Wall Street Journ… 1990-2003     30    50 Fifty Total Pulitzer Awards        
##  4 Wall Street Journ… 2004-2014     20    50 Fifty Total Pulitzer Awards        
##  5 New York Times     1990-2003     55   117 One Hundred Seventeen Total Pulitz…
##  6 New York Times     2004-2014     62   117 One Hundred Seventeen Total Pulitz…
##  7 Los Angeles Times  1990-2003     44    85 Eighty-Five Total Pulitzer Awards  
##  8 Los Angeles Times  2004-2014     41    85 Eighty-Five Total Pulitzer Awards  
##  9 Washington Post    1990-2003     52   100 One Hundred Total Pulitzer Awards  
## 10 Washington Post    2004-2014     48   100 One Hundred Total Pulitzer Awards  
## # … with 90 more rows
```
…
---
# Produce all plots
### Nest first

```r
pulitzer %>%
	group_by(newspaper, label) %>%
	nest() 
```

```
## # A tibble: 50 x 3
## # Groups:   newspaper, label [50]
##    newspaper             label                                   data           
##    <chr>                 <chr>                                   <list>         
##  1 USA Today             Two Total Pulitzer Awards               <tibble [2 × 3…
##  2 Wall Street Journal   Fifty Total Pulitzer Awards             <tibble [2 × 3…
##  3 New York Times        One Hundred Seventeen Total Pulitzer A… <tibble [2 × 3…
##  4 Los Angeles Times     Eighty-Five Total Pulitzer Awards       <tibble [2 × 3…
##  5 Washington Post       One Hundred Total Pulitzer Awards       <tibble [2 × 3…
##  6 New York Daily News   Six Total Pulitzer Awards               <tibble [2 × 3…
##  7 New York Post         Zero Total Pulitzer Awards              <tibble [2 × 3…
##  8 Chicago Tribune       Thirty-Eight Total Pulitzer Awards      <tibble [2 × 3…
##  9 San Jose Mercury News Six Total Pulitzer Awards               <tibble [2 × 3…
## 10 Newsday               Eighteen Total Pulitzer Awards          <tibble [2 × 3…
## # … with 40 more rows
```
…
